{
    "nodeBackendServer" : {
        "port" : "4004"
    },
    "dbConfig" : {
        "host" : "localhost",
        "username" : "root",
        "password" : null,
        "database": "grimreaper"
    },
    "mongodbConfig" : {
        "host" : "localhost",
        "username" : "root",
        "password" : null,
        "database": "grimreaper"
    },
    "newDbConfig" : {
        "host" : "localhost",
        "timezone":"+00:00",
        "port" : 3306,
        "maxConcurrentQueries": 100,
        "dialect": "mysql",
        "logging": false,
        "pool": {
            "maxConnections": 25,
            "maxIdleTime": 30
        }
    },
    "log4jConfig": {
        "auditLogAppender": {
            "category": "audit",
            "filename": "logs/audit.log",
            "pattern": "-yyyy-MM-dd",
            "type": "console"
        },
        "cronLogAppender": {
            "category": "cron",
            "filename": "logs/nodeCronLogFile.log",
            "pattern": "-yyyy-MM-dd",
            "type": "console"
        },
        "dbLogAppender": {
            "category": "database",
            "filename": "logs/database.log",
            "pattern": "-yyyy-MM-dd",
            "type": "console"
        },
        "levels": {
            "app": "DEBUG",
            "audit": "DEBUG",
            "cron": "DEBUG",
            "database": "DEBUG"
        },
        "serverLogAppander": {
            "category": "app",
            "filename": "logs/nodeServerLogFile",
            "pattern": "-yyyy-MM-dd-hh",
            "type": "console"
        },
        "webServiceLogAppender": {
            "category": "webServiceLogAppender",
            "filename": "logs/webServiceLogFile",
            "layout": {
                "type": "basicLayout"
            },
            "pattern": "-yyyy-MM-dd-hh",
            "type": "dateFile"
        },
        "appendConsoleLog" : true
    },
    "backendServerConfig" : {
        "url" : "http://localhost:7000"
    }
}
